1,Hà Nội,Hà Nội,NULL,NULL,NULL,NULL,NULL,0
2,Hồ Chí Minh,Hồ Chí Minh,NULL,NULL,NULL,NULL,NULL,0
3,Đà Nẵng,Đà Nẵng,NULL,NULL,NULL,NULL,NULL,0
4,Hải Phòng,Hải Phòng,NULL,NULL,NULL,NULL,NULL,0
5,Cần Thơ,Cần Thơ,NULL,NULL,NULL,NULL,NULL,0
6,An Giang,An Giang,NULL,NULL,NULL,NULL,NULL,0
7,Bà Rịa-Vũng Tàu,Bà Rịa-Vũng Tàu,NULL,NULL,NULL,NULL,NULL,0
8,Bạc Liêu,Bạc Liêu,NULL,NULL,NULL,NULL,NULL,0
9,Bắc Cạn,Bắc Cạn,NULL,NULL,NULL,NULL,NULL,0
10,Bắc Giang,Bắc Giang,NULL,NULL,NULL,NULL,NULL,0
11,Hải Dương,Hải Dương,NULL,NULL,NULL,NULL,NULL,0
12,Bắc Ninh,Bắc Ninh,NULL,NULL,NULL,NULL,NULL,0
13,Bến Tre,Bến Tre,NULL,NULL,NULL,NULL,NULL,0
14,Bình Dương,Bình Dương,NULL,NULL,NULL,NULL,NULL,0
15,Bình Định,Bình Định,NULL,NULL,NULL,NULL,NULL,0
16,Bình Phước,Bình Phước,NULL,NULL,NULL,NULL,NULL,0
17,Bình Thuận,Bình Thuận,NULL,NULL,NULL,NULL,NULL,0
18,Cà Mau,Cà Mau,NULL,NULL,NULL,NULL,NULL,0
19,Cao Bằng,Cao Bằng,NULL,NULL,NULL,NULL,NULL,0
20,Đắk Lắk,Đắk Lắk,NULL,NULL,NULL,NULL,NULL,0
21,Đăk Nông,Đăk Nông,NULL,NULL,NULL,NULL,NULL,0
22,Điện Biên,Điện Biên,NULL,NULL,NULL,NULL,NULL,0
23,Đồng Nai,Đồng Nai,NULL,NULL,NULL,NULL,NULL,0
24,Đồng Tháp,Đồng Tháp,NULL,NULL,NULL,NULL,NULL,0
25,Gia Lai,Gia Lai,NULL,NULL,NULL,NULL,NULL,0
26,Hà Giang,Hà Giang,NULL,NULL,NULL,NULL,NULL,0
27,Hà Nam,Hà Nam,NULL,NULL,NULL,NULL,NULL,0
28,Hà Tĩnh,Hà Tĩnh,NULL,NULL,NULL,NULL,NULL,0
29,Hậu Giang,Hậu Giang,NULL,NULL,NULL,NULL,NULL,0
30,Hòa Bình,Hòa Bình,NULL,NULL,NULL,NULL,NULL,0
31,Hưng Yên,Hưng Yên,NULL,NULL,NULL,NULL,NULL,0
32,Khánh Hòa,Khánh Hòa,NULL,NULL,NULL,NULL,NULL,0
33,Kiên Giang,Kiên Giang,NULL,NULL,NULL,NULL,NULL,0
34,Kon Tum,Kon Tum,NULL,NULL,NULL,NULL,NULL,0
35,Lai Châu,Lai Châu,NULL,NULL,NULL,NULL,NULL,0
36,Lâm Đồng,Lâm Đồng,NULL,NULL,NULL,NULL,NULL,0
37,Lạng Sơn,Lạng Sơn,NULL,NULL,NULL,NULL,NULL,0
38,Lào Cai,Lào Cai,NULL,NULL,NULL,NULL,NULL,0
39,Long An,Long An,NULL,NULL,NULL,NULL,NULL,0
40,Nam Định,Nam Định,NULL,NULL,NULL,NULL,NULL,0
41,Nghệ An,Nghệ An,NULL,NULL,NULL,NULL,NULL,0
42,Ninh Bình,Ninh Bình,NULL,NULL,NULL,NULL,NULL,0
43,Ninh Thuận,Ninh Thuận,NULL,NULL,NULL,NULL,NULL,0
44,Phú Thọ,Phú Thọ,NULL,NULL,NULL,NULL,NULL,0
45,Phú Yên,Phú Yên,NULL,NULL,NULL,NULL,NULL,0
46,Quảng Bình,Quảng Bình,NULL,NULL,NULL,NULL,NULL,0
47,Quảng Nam,Quảng Nam,NULL,NULL,NULL,NULL,NULL,0
48,Quảng Ngãi,Quảng Ngãi,NULL,NULL,NULL,NULL,NULL,0
49,Quảng Ninh,Quảng Ninh,NULL,NULL,NULL,NULL,NULL,0
50,Quảng Trị,Quảng Trị,NULL,NULL,NULL,NULL,NULL,0
51,Sóc Trăng,Sóc Trăng,NULL,NULL,NULL,NULL,NULL,0
52,Sơn La,Sơn La,NULL,NULL,NULL,NULL,NULL,0
53,Tây Ninh,Tây Ninh,NULL,NULL,NULL,NULL,NULL,0
54,Thái Bình,Thái Bình,NULL,NULL,NULL,NULL,NULL,0
55,Thái Nguyên,Thái Nguyên,NULL,NULL,NULL,NULL,NULL,0
56,Thanh Hóa,Thanh Hóa,NULL,NULL,NULL,NULL,NULL,0
57,Huế,Huế,NULL,NULL,NULL,NULL,NULL,0
58,Tiền Giang,Tiền Giang,NULL,NULL,NULL,NULL,NULL,0
59,Trà Vinh,Trà Vinh,NULL,NULL,NULL,NULL,NULL,0
60,Tuyên Quang,Tuyên Quang,NULL,NULL,NULL,NULL,NULL,0
61,Vĩnh Long,Vĩnh Long,NULL,NULL,NULL,NULL,NULL,0
62,Vĩnh Phúc,Vĩnh Phúc,NULL,NULL,NULL,NULL,NULL,0
63,Yên Bái,Yên Bái,NULL,NULL,NULL,NULL,NULL,0
